{
  "images" : [
    {
      "filename" : "coen-van-de-broek-k-M_mR5DqpA-unsplash.jpg",
      "idiom" : "universal",
      "scale" : "1x"
    },
    {
      "filename" : "coen-van-de-broek-k-M_mR5DqpA-unsplash@2x.jpg",
      "idiom" : "universal",
      "scale" : "2x"
    },
    {
      "filename" : "coen-van-de-broek-k-M_mR5DqpA-unsplash@3x.jpg",
      "idiom" : "universal",
      "scale" : "3x"
    }
  ],
  "info" : {
    "author" : "xcode",
    "version" : 1
  }
}
